Grouping behavior in yardstick • yardstick
…
Group-awareness

Even before the implementation of groupwise metrics, all
yardstick metrics had been group-aware. When grouped data is
passed to a group-aware metric, it will return metric values calculated
for each group.

To demonstrate, we’ll make use of the hpc_cv data set,
containing class probabilities and class predictions for a linear
discriminant analysis fit to the HPC data set of Kuhn and Johnson
(2013). The model is evaluated via 10-fold cross-validation, and the
predictions for all folds are included.

tibble(hpc_cv)
#> # A tibble: 3,467 × 7
#>    obs   pred     VF      F       M          L Resample
#>    <fct> <fct> <dbl>  <dbl>   <dbl>      <dbl> <chr>   
#>  1 VF    VF    0.914 0.0779 0.00848 0.0000199  Fold01  
#>  2 VF    VF    0.938 0.0571 0.00482 0.0000101  Fold01  
#>  3 VF    VF    0.947 0.0495 0.00316 0.00000500 Fold01  
#>  4 VF    VF    0.929 0.0653 0.00579 0.0000156  Fold01  
#>  5 VF    VF    0.942 0.0543 0.00381 0.00000729 Fold01  
#>  6 VF    VF    0.951 0.0462 0.00272 0.00000384 Fold01  
#>  7 VF    VF    0.914 0.0782 0.00767 0.0000354  Fold01  
#>  8 VF    VF    0.918 0.0744 0.00726 0.0000157  Fold01  
#>  9 VF    VF    0.843 0.128  0.0296  0.000192   Fold01  
#> 10 VF    VF    0.920 0.0728 0.00703 0.0000147  Fold01  
#> # ℹ 3,457 more rows

For the purposes of this vignette, we’ll also add a column
batch to the data and select off the columns for the class
probabilities, which we don’t need.

set.seed(1)

hpc <-
  tibble(hpc_cv) %>%
  mutate(batch = sample(c("a", "b"), nrow(.), replace = TRUE)) %>%
  select(-c(VF, F, M, L))

hpc
#> # A tibble: 3,467 × 4
#>    obs   pred  Resample batch
#>    <fct> <fct> <chr>    <chr>
#>  1 VF    VF    Fold01   a    
#>  2 VF    VF    Fold01   b    
#>  3 VF    VF    Fold01   a    
#>  4 VF    VF    Fold01   a    
#>  5 VF    VF    Fold01   b    
#>  6 VF    VF    Fold01   a    
#>  7 VF    VF    Fold01   a    
#>  8 VF    VF    Fold01   a    
#>  9 VF    VF    Fold01   b    
#> 10 VF    VF    Fold01   b    
#> # ℹ 3,457 more rows
…
Groupwise metrics

Groupwise metrics are associated with a data-column such that, when
passed data with that column, the metric will temporarily group by that
column, compute values for each of the groups defined by the column, and
then aggregate the values computed for the temporary grouping back to
the level of the input data’s grouping.

More concretely, let’s turn to an example where there is no
pre-existing grouping in the data. Consider the portion of the HPC data
pertaining to the first resample:

hpc %>% 
  filter(Resample == "Fold01")
#> # A tibble: 347 × 4
#>    obs   pred  Resample batch
#>    <fct> <fct> <chr>    <chr>
#>  1 VF    VF    Fold01   a    
#>  2 VF    VF    Fold01   b    
#>  3 VF    VF    Fold01   a    
#>  4 VF    VF    Fold01   a    
#>  5 VF    VF    Fold01   b    
#>  6 VF    VF    Fold01   a    
#>  7 VF    VF    Fold01   a    
#>  8 VF    VF    Fold01   a    
#>  9 VF    VF    Fold01   b    
#> 10 VF    VF    Fold01   b    
#> # ℹ 337 more rows
…
