…
In the following example, the `hpc_cv` data set is used. It contains
class probabilities and class predictions for a linear discriminant
analysis fit to the HPC data set of Kuhn and Johnson (2013). It is fit
with 10 fold cross-validation, and the predictions for all folds are
included.

``` r
library(yardstick)
library(dplyr)
data("hpc_cv")

hpc_cv |>
  group_by(Resample) |>
  slice(1:3)
#> # A tibble: 30 × 7
#> # Groups:   Resample [10]
#>    obs   pred     VF      F       M          L Resample
#>    <fct> <fct> <dbl>  <dbl>   <dbl>      <dbl> <chr>   
#>  1 VF    VF    0.914 0.0779 0.00848 0.0000199  Fold01  
#>  2 VF    VF    0.938 0.0571 0.00482 0.0000101  Fold01  
#>  3 VF    VF    0.947 0.0495 0.00316 0.00000500 Fold01  
#>  4 VF    VF    0.941 0.0544 0.00441 0.0000123  Fold02  
#>  5 VF    VF    0.948 0.0483 0.00347 0.00000792 Fold02  
#>  6 VF    VF    0.958 0.0395 0.00236 0.00000310 Fold02  
#>  7 VF    VF    0.939 0.0556 0.00513 0.00000790 Fold03  
#>  8 VF    VF    0.928 0.0642 0.00777 0.0000148  Fold03  
#>  9 VF    VF    0.927 0.0653 0.00786 0.0000150  Fold03  
#> 10 VF    VF    0.949 0.0469 0.00398 0.00000935 Fold04  
#> # ℹ 20 more rows
```
…
