Lift curve — lift_curve • yardstick
…
    See also

    Other curve metrics: gain_curve,
  pr_curve, roc_curve

    Examples

library(ggplot2)
library(dplyr)

# Two class - a tibble is returned
lift_curve(two_class_example, truth, Class1)
#> # A tibble: 501 x 4
#>       .n .n_events .percent_tested  .lift
#>    <dbl>     <dbl>           <dbl>  <dbl>
#>  1     0         0             0   NaN   
#>  2     1         1             0.2   1.94
#>  3     2         2             0.4   1.94
#>  4     3         3             0.6   1.94
#>  5     4         4             0.8   1.94
#>  6     5         5             1     1.94
#>  7     6         6             1.2   1.94
#>  8     7         7             1.4   1.94
#>  9     8         8             1.6   1.94
#> 10     9         9             1.8   1.94
#> # ... with 491 more rows
…
