Gain curve — gain_curve • yardstick
…
# ---------------------------------------------------------------------------
# Two class example

# `truth` is a 2 level factor. The first level is `"Class1"`, which is the
# "event of interest" by default in yardstick. See the Relevant Level
# section above.
data(two_class_example)

# Binary metrics using class probabilities take a factor `truth` column,
# and a single class probability column containing the probabilities of
# the event of interest. Here, since `"Class1"` is the first level of
# `"truth"`, it is the event of interest and we pass in probabilities for it.
gain_curve(two_class_example, truth, Class1)

#> # A tibble: 501 × 4
#>       .n .n_events .percent_tested .percent_found
#>    <dbl>     <dbl>           <dbl>          <dbl>
#>  1     0         0             0            0    
#>  2     1         1             0.2          0.388
#>  3     2         2             0.4          0.775
#>  4     3         3             0.6          1.16 
#>  5     4         4             0.8          1.55 
#>  6     5         5             1            1.94 
#>  7     6         6             1.2          2.33 
#>  8     7         7             1.4          2.71 
#>  9     8         8             1.6          3.10 
#> 10     9         9             1.8          3.49 
#> # … with 491 more rows
…
