Lift curve — lift_curve • yardstick
…
# ---------------------------------------------------------------------------
# Two class example

# `truth` is a 2 level factor. The first level is `"Class1"`, which is the
# "event of interest" by default in yardstick. See the Relevant Level
# section above.
data(two_class_example)

# Binary metrics using class probabilities take a factor `truth` column,
# and a single class probability column containing the probabilities of
# the event of interest. Here, since `"Class1"` is the first level of
# `"truth"`, it is the event of interest and we pass in probabilities for it.
lift_curve(two_class_example, truth, Class1)
#> # A tibble: 501 × 4
#>       .n .n_events .percent_tested  .lift
#>    <dbl>     <dbl>           <dbl>  <dbl>
#>  1     0         0             0   NaN   
#>  2     1         1             0.2   1.94
#>  3     2         2             0.4   1.94
#>  4     3         3             0.6   1.94
#>  5     4         4             0.8   1.94
#>  6     5         5             1     1.94
#>  7     6         6             1.2   1.94
#>  8     7         7             1.4   1.94
#>  9     8         8             1.6   1.94
#> 10     9         9             1.8   1.94
#> # ℹ 491 more rows
…
