…
# Note that, when given class or class prob functions,
# metric_set() returns a function with signature:
# fn(data, truth, ..., estimate)
# to be able to mix class and class prob metrics.

# You must provide the `estimate` column by explicitly naming
# the argument

class_and_probs_metrics <- metric_set(roc_auc, pr_auc, accuracy)

hpc_cv |>
  group_by(Resample) |>
  class_and_probs_metrics(obs, VF:L, estimate = pred)
#> # A tibble: 30 × 4
#>    Resample .metric  .estimator .estimate
#>    <chr>    <chr>    <chr>          <dbl>
#>  1 Fold01   accuracy multiclass     0.726
#>  2 Fold02   accuracy multiclass     0.712
#>  3 Fold03   accuracy multiclass     0.758
#>  4 Fold04   accuracy multiclass     0.712
#>  5 Fold05   accuracy multiclass     0.712
#>  6 Fold06   accuracy multiclass     0.697
#>  7 Fold07   accuracy multiclass     0.675
#>  8 Fold08   accuracy multiclass     0.721
#>  9 Fold09   accuracy multiclass     0.673
#> 10 Fold10   accuracy multiclass     0.699
#> # ℹ 20 more rows
```
