Precision recall curve — pr_curve • yardstick
…
# ---------------------------------------------------------------------------
# Two class example

# `truth` is a 2 level factor. The first level is `"Class1"`, which is the
# "event of interest" by default in yardstick. See the Relevant Level
# section above.
data(two_class_example)

# Binary metrics using class probabilities take a factor `truth` column,
# and a single class probability column containing the probabilities of
# the event of interest. Here, since `"Class1"` is the first level of
# `"truth"`, it is the event of interest and we pass in probabilities for it.
pr_curve(two_class_example, truth, Class1)
#> # A tibble: 501 × 3
#>    .threshold  recall precision
#>         <dbl>   <dbl>     <dbl>
#>  1     Inf    0               1
#>  2       1.00 0.00388         1
#>  3       1.00 0.00775         1
#>  4       1.00 0.0116          1
#>  5       1.00 0.0155          1
#>  6       1.00 0.0194          1
#>  7       1.00 0.0233          1
#>  8       1.00 0.0271          1
#>  9       1.00 0.0310          1
#> 10       1.00 0.0349          1
#> # … with 491 more rows
…
