Time-Dependent ROC surve for Censored Data — roc_curve_survival • yardstick
…
    Compute the area under the ROC survival curve with roc_auc_survival().

    Author

    Emil Hvitfeldt

    Examples

result <- roc_curve_survival(
  lung_surv,
  truth = surv_obj,
  .pred
)
result
#> # A tibble: 650 × 4
#>    .threshold specificity sensitivity .eval_time
#>         <dbl>       <dbl>       <dbl>      <dbl>
#>  1    Inf           1          0             100
#>  2      0.948       0.995      0             100
#>  3      0.947       0.985      0.0333        100
#>  4      0.946       0.985      0.133         100
#>  5      0.945       0.985      0.167         100
#>  6      0.945       0.980      0.233         100
#>  7      0.944       0.969      0.233         100
#>  8      0.944       0.964      0.267         100
#>  9      0.942       0.959      0.267         100
#> 10      0.941       0.954      0.267         100
#> # ℹ 640 more rows
…
