Receiver operator curve — roc_curve • yardstick
…
# ---------------------------------------------------------------------------
# Two class example

# `truth` is a 2 level factor. The first level is `"Class1"`, which is the
# "event of interest" by default in yardstick. See the Relevant Level
# section above.
data(two_class_example)

# Binary metrics using class probabilities take a factor `truth` column,
# and a single class probability column containing the probabilities of
# the event of interest. Here, since `"Class1"` is the first level of
# `"truth"`, it is the event of interest and we pass in probabilities for it.
roc_curve(two_class_example, truth, Class1)
#> # A tibble: 502 x 3
#>    .threshold specificity sensitivity
#>         <dbl>       <dbl>       <dbl>
#>  1 -Inf           0                 1
#>  2    1.79e-7     0                 1
#>  3    4.50e-6     0.00413           1
#>  4    5.81e-6     0.00826           1
#>  5    5.92e-6     0.0124            1
#>  6    1.22e-5     0.0165            1
#>  7    1.40e-5     0.0207            1
#>  8    1.43e-5     0.0248            1
#>  9    2.38e-5     0.0289            1
#> 10    3.30e-5     0.0331            1
#> # … with 492 more rows
…
